1 1 0.3477620474765112
1 2 0.08757910546340797
1 3 0.39687859740142617
1 4 0.9063800629125169
1 5 0.20099071590729156
1 6 0.6793862718243517
1 7 0.690694604169159
1 8 0.20163732602576878
1 9 0.861770751252025
2 1 0.13602697445364964
2 2 0.5167422792416825
2 3 0.5434609329318497
2 4 0.9112055303755303
2 5 0.5058413666191569
2 6 0.41442081550157495
2 7 0.27389689018044105
2 8 0.07692324329445299
2 9 0.4442021767910591
3 1 0.7089543544222064
3 2 0.9271072913004947
3 3 0.03649961824852921
3 4 0.15008744163574528
3 5 0.729212013202241
3 6 0.7036430655078904
3 7 0.5907059613820058
3 8 0.6607838966984354
3 9 0.2492226640174151
4 1 0.9045619729328765
4 2 0.0034196593560906763
4 3 0.29559632605037056
4 4 0.4679332030133022
4 5 0.8616268191517389
4 6 0.013637208307662685
4 7 0.07316108726357928
4 8 0.4624775400009834
4 9 0.7527021230488168
5 1 0.09947781528322452
5 2 0.34678399224390444
5 3 0.2888101008693187
5 4 0.9820177204962354
5 5 0.9402714814565293
5 6 0.34065131105660507
5 7 0.43708317744761893
5 8 0.5743233238909162
5 9 0.308035709162385
6 1 0.6667061616186786
6 2 0.46468774886414044
6 3 0.49025190527352935
6 4 0.6839669201723612
6 5 0.7281677852286736
6 6 0.4162970519380781
6 7 0.6784695275642205
6 8 0.1145853989084561
6 9 0.3361208943463072
7 1 0.24988281027956594
7 2 0.06136240475993182
7 3 0.9333770727721492
7 4 0.02552422677361499
7 5 0.1259285165635361
7 6 0.7638445326654939
7 7 0.5273549936953197
7 8 0.017279564503195233
7 9 0.36040289181739027
8 1 0.41612277682977805
8 2 0.16646530504056933
8 3 0.5557272891570435
8 4 0.5081882424635783
8 5 0.11402389068005514
8 6 0.12562804210801637
8 7 0.5866024228350335
8 8 0.07276597992161526
8 9 0.08790296591356217
9 1 0.6111460625592446
9 2 0.6393590291389729
9 3 0.9574769555352661
9 4 0.20094210903610854
9 5 0.7368502550455259
9 6 0.7229693333891034
9 7 0.026856874181969026
9 8 0.19720258936118373
9 9 0.5986407142806321
